
DisplayName "Grangold"



EVENT   1
 PAGE   1
  0()



EVENT   2
 PAGE   1
  0()



EVENT   3
 PAGE   1
  0()



EVENT   4
 PAGE   1
  0()



EVENT   5
 PAGE   1
  0()



EVENT   6
 PAGE   1
  ShowMessageFace("",0,0,2,1)
  ShowMessage("The door is firmly shut.")
  0()



EVENT   7
 PAGE   1
  0()



EVENT   8
 PAGE   1
  0()



EVENT   9
 PAGE   1
  ShowMessageFace("",0,0,2,1)
  ShowMessage("The door is firmly shut.")
  0()



EVENT   10
 PAGE   1
  ShowMessageFace("",0,0,2,1)
  ShowMessage("The door is firmly shut.")
  0()



EVENT   11
 PAGE   1
  ShowMessageFace("",0,0,2,1)
  ShowMessage("The door is firmly shut.")
  0()



EVENT   12
 PAGE   1
  ShowMessageFace("",0,0,2,1)
  ShowMessage("The door is firmly shut.")
  0()



EVENT   13
 PAGE   1
  ShowMessageFace("",0,0,2,1)
  ShowMessage("The door is firmly shut.")
  0()



EVENT   14
 PAGE   1
  ShowMessageFace("",0,0,2,1)
  ShowMessage("The door is firmly shut.")
  0()



EVENT   15
 PAGE   1
  ShowMessageFace("",0,0,2,1)
  ShowMessage("The door is firmly shut.")
  0()



EVENT   16
 PAGE   1
  ShowMessageFace("",0,0,2,1)
  ShowMessage("The door is firmly shut.")
  0()



EVENT   17
 PAGE   1
  ShowMessageFace("",0,0,2,1)
  ShowMessage("The door is firmly shut.")
  0()



EVENT   18
 PAGE   1
  ShowMessageFace("",0,0,2,1)
  ShowMessage("The door is firmly shut.")
  0()



EVENT   19
 PAGE   1
  250(bytes(0x04,0x08,0x6f,0x3a,0x0c,0x52,0x50,0x47,0x3a,0x3a,0x53,0x45,0x08,0x3a,0x0a,0x40,0x6e,0x61,0x6d,0x65,0x49,0x22,0x09,0x4d,0x6f,0x76,0x65,0x06,0x3a,0x06,0x45,0x54,0x3a,0x0b,0x40,0x70,0x69,0x74,0x63,0x68,0x69,0x69,0x3a,0x0c,0x40,0x76,0x6f,0x6c,0x75,0x6d,0x65,0x69,0x55))
  TeleportPlayer(0,2,234,153,2,0)
  0()



EVENT   20
 PAGE   1
  250(bytes(0x04,0x08,0x6f,0x3a,0x0c,0x52,0x50,0x47,0x3a,0x3a,0x53,0x45,0x08,0x3a,0x0a,0x40,0x6e,0x61,0x6d,0x65,0x49,0x22,0x09,0x4d,0x6f,0x76,0x65,0x06,0x3a,0x06,0x45,0x54,0x3a,0x0b,0x40,0x70,0x69,0x74,0x63,0x68,0x69,0x69,0x3a,0x0c,0x40,0x76,0x6f,0x6c,0x75,0x6d,0x65,0x69,0x55))
  TeleportPlayer(0,2,234,153,2,0)
  0()



EVENT   21
 PAGE   1
  250(bytes(0x04,0x08,0x6f,0x3a,0x0c,0x52,0x50,0x47,0x3a,0x3a,0x53,0x45,0x08,0x3a,0x0a,0x40,0x6e,0x61,0x6d,0x65,0x49,0x22,0x09,0x4d,0x6f,0x76,0x65,0x06,0x3a,0x06,0x45,0x54,0x3a,0x0b,0x40,0x70,0x69,0x74,0x63,0x68,0x69,0x69,0x3a,0x0c,0x40,0x76,0x6f,0x6c,0x75,0x6d,0x65,0x69,0x55))
  TeleportPlayer(0,2,234,153,2,0)
  0()



EVENT   22
 PAGE   1
  0()



EVENT   23
 PAGE   1
  ShowMessageFace("ant_fc1",0,0,2,1)
  ShowMessage("\\n<Ant Girl>YOU WILL NOT GO ANY FURTHER!")
  0()



EVENT   24
 PAGE   1
  ShowMessageFace("ant_fc1",0,0,2,1)
  ShowMessage("\\n<Ant Girl>YOU WILL NOT GO ANY FURTHER!")
  0()



EVENT   25
 PAGE   1
  ShowMessageFace("ant_fc1",0,0,2,1)
  ShowMessage("\\n<Ant Girl>YOU WILL NOT GO ANY FURTHER!")
  0()



EVENT   26
 PAGE   1
  ShowMessageFace("taran_fc1",0,0,2,1)
  ShowMessage("\\n<Tarantula Girl>.........")
  0()



EVENT   27
 PAGE   1
  ShowMessageFace("arachnes_fc2",0,0,2,1)
  ShowMessage("\\n<Arachnes>...")
  0()



EVENT   28
 PAGE   1
  ShowMessageFace("kumo_fc1",0,0,2,1)
  ShowMessage("\\n<Spider Girl>.........")
  0()



EVENT   29
 PAGE   1
  ShowMessageFace("arachnes_fc2",0,0,2,1)
  ShowMessage("\\n<Arachnes>...")
  0()



EVENT   30
 PAGE   1
  ShowMessageFace("taran_fc1",0,0,2,1)
  ShowMessage("\\n<Tarantula Girl>.........")
  0()



EVENT   31
 PAGE   1
  ShowMessageFace("arachnes_fc2",0,0,2,1)
  ShowMessage("\\n<Arachnes>...")
  0()



EVENT   32
 PAGE   1
  ShowMessageFace("",0,0,2,1)
  ShowMessage("The door is firmly shut.")
  0()



EVENT   34
 PAGE   1
  // condition: switch 33 is ON
  0()



EVENT   35
 PAGE   1
  250(bytes(0x04,0x08,0x6f,0x3a,0x0c,0x52,0x50,0x47,0x3a,0x3a,0x53,0x45,0x08,0x3a,0x0a,0x40,0x6e,0x61,0x6d,0x65,0x49,0x22,0x09,0x4d,0x6f,0x76,0x65,0x06,0x3a,0x06,0x45,0x54,0x3a,0x0b,0x40,0x70,0x69,0x74,0x63,0x68,0x69,0x69,0x3a,0x0c,0x40,0x76,0x6f,0x6c,0x75,0x6d,0x65,0x69,0x55))
  TeleportPlayer(0,2,234,153,2,0)
  0()



EVENT   36
 PAGE   1
  250(bytes(0x04,0x08,0x6f,0x3a,0x0c,0x52,0x50,0x47,0x3a,0x3a,0x53,0x45,0x08,0x3a,0x0a,0x40,0x6e,0x61,0x6d,0x65,0x49,0x22,0x09,0x4d,0x6f,0x76,0x65,0x06,0x3a,0x06,0x45,0x54,0x3a,0x0b,0x40,0x70,0x69,0x74,0x63,0x68,0x69,0x69,0x3a,0x0c,0x40,0x76,0x6f,0x6c,0x75,0x6d,0x65,0x69,0x55))
  TeleportPlayer(0,2,234,153,2,0)
  0()



EVENT   37
 PAGE   1
  250(bytes(0x04,0x08,0x6f,0x3a,0x0c,0x52,0x50,0x47,0x3a,0x3a,0x53,0x45,0x08,0x3a,0x0a,0x40,0x6e,0x61,0x6d,0x65,0x49,0x22,0x09,0x4d,0x6f,0x76,0x65,0x06,0x3a,0x06,0x45,0x54,0x3a,0x0b,0x40,0x70,0x69,0x74,0x63,0x68,0x69,0x69,0x3a,0x0c,0x40,0x76,0x6f,0x6c,0x75,0x6d,0x65,0x69,0x55))
  TeleportPlayer(0,2,234,153,2,0)
  0()



EVENT   38
 PAGE   1
  250(bytes(0x04,0x08,0x6f,0x3a,0x0c,0x52,0x50,0x47,0x3a,0x3a,0x53,0x45,0x08,0x3a,0x0a,0x40,0x6e,0x61,0x6d,0x65,0x49,0x22,0x09,0x4d,0x6f,0x76,0x65,0x06,0x3a,0x06,0x45,0x54,0x3a,0x0b,0x40,0x70,0x69,0x74,0x63,0x68,0x69,0x69,0x3a,0x0c,0x40,0x76,0x6f,0x6c,0x75,0x6d,0x65,0x69,0x55))
  TeleportPlayer(0,2,234,153,2,0)
  0()



EVENT   39
 PAGE   1
  250(bytes(0x04,0x08,0x6f,0x3a,0x0c,0x52,0x50,0x47,0x3a,0x3a,0x53,0x45,0x08,0x3a,0x0a,0x40,0x6e,0x61,0x6d,0x65,0x49,0x22,0x09,0x4d,0x6f,0x76,0x65,0x06,0x3a,0x06,0x45,0x54,0x3a,0x0b,0x40,0x70,0x69,0x74,0x63,0x68,0x69,0x69,0x3a,0x0c,0x40,0x76,0x6f,0x6c,0x75,0x6d,0x65,0x69,0x55))
  TeleportPlayer(0,2,234,153,2,0)
  0()



EVENT   40
 PAGE   1
  250(bytes(0x04,0x08,0x6f,0x3a,0x0c,0x52,0x50,0x47,0x3a,0x3a,0x53,0x45,0x08,0x3a,0x0a,0x40,0x6e,0x61,0x6d,0x65,0x49,0x22,0x09,0x4d,0x6f,0x76,0x65,0x06,0x3a,0x06,0x45,0x54,0x3a,0x0b,0x40,0x70,0x69,0x74,0x63,0x68,0x69,0x69,0x3a,0x0c,0x40,0x76,0x6f,0x6c,0x75,0x6d,0x65,0x69,0x55))
  TeleportPlayer(0,2,234,153,2,0)
  0()



EVENT   41
 PAGE   1
  250(bytes(0x04,0x08,0x6f,0x3a,0x0c,0x52,0x50,0x47,0x3a,0x3a,0x53,0x45,0x08,0x3a,0x0a,0x40,0x6e,0x61,0x6d,0x65,0x49,0x22,0x09,0x4d,0x6f,0x76,0x65,0x06,0x3a,0x06,0x45,0x54,0x3a,0x0b,0x40,0x70,0x69,0x74,0x63,0x68,0x69,0x69,0x3a,0x0c,0x40,0x76,0x6f,0x6c,0x75,0x6d,0x65,0x69,0x55))
  TeleportPlayer(0,2,234,153,2,0)
  0()



EVENT   42
 PAGE   1
  250(bytes(0x04,0x08,0x6f,0x3a,0x0c,0x52,0x50,0x47,0x3a,0x3a,0x53,0x45,0x08,0x3a,0x0a,0x40,0x6e,0x61,0x6d,0x65,0x49,0x22,0x09,0x4d,0x6f,0x76,0x65,0x06,0x3a,0x06,0x45,0x54,0x3a,0x0b,0x40,0x70,0x69,0x74,0x63,0x68,0x69,0x69,0x3a,0x0c,0x40,0x76,0x6f,0x6c,0x75,0x6d,0x65,0x69,0x55))
  TeleportPlayer(0,2,234,153,2,0)
  0()



EVENT   43
 PAGE   1
  If(0,2243,1)
   ShowMessageFace("oogumo_fc1",0,0,2,1)
   ShowMessage("\\n<Large Spider>Heheh, come out and play, girl.\nI'll slowly slurp up your bodily fluids...")
   ShowMessageFace("",0,0,2,2)
   ShowMessage("\\n<Bread Seller>Oh goddess no...")
   0()
  EndIf()
  If(0,2243,0)
   ShowMessageFace("",0,0,2,3)
   ShowMessage("\\n<Bread Seller>I tried to hide, but there isn't anywhere safe from them...")
   0()
  EndIf()
  0()



EVENT   44
 PAGE   1
  ShowMessageFace("ruka_fc1",0,0,2,1)
  ShowMessage("\\n<Luka>Spider girls have completely overrun the city!\nIt looks like the ant girls are holding out, but it doesn't look good for them!")
  If(4,268,0)
   ShowMessageFace("queenant_fc1",1,0,2,2)
   ShowMessage("\\n<Antine Ann>This is horrible...\nI've got to help my fellow ant girls at once!")
   0()
  EndIf()
  If(4,45,0)
   ShowMessageFace("alicetromeria_fc1",4,0,2,3)
   ShowMessage("\\n<Alicetroemeria>The arachne are attacking a city defended by their cousins, the ant girls... Ufufu.")
   0()
  EndIf()
  If(0,4,0)
   ShowMessageFace("alice_fc5",2,0,2,4)
   ShowMessage("\\n<Alice>The arachne army means trouble.\nNot only do they have comparatively high magical power and exceptional physical ability, they're uncommonly cruel.")
   ShowMessageFace("alice_fc5",2,0,2,5)
   ShowMessage("\\n<Alice>I can sense the presence of the Arachne Queen, Spider Princess, as well. If we take her out, we'll remove the head of the army!")
   0()
  EndIf()
  If(0,5,0)
   ShowMessageFace("iriasu_fc4",7,0,2,6)
   ShowMessage("\\n<Ilias>The arachne army is terrible trouble.\nNot only do they have comparatively high magical power and exceptional physical ability, they're extremely cruel.")
   ShowMessageFace("iriasu_fc4",7,0,2,7)
   ShowMessage("\\n<Ilias>I can sense the presence of the Arachne Queen, Spider Princess, as well. If we can squash her, the rest of her army will scatter like roaches from the light!")
   0()
  EndIf()
  If(4,104,0)
   ShowMessageFace("kumo_fc1",2,0,2,8)
   ShowMessage("\\n<Rachnee>We have to fight the Spider Princess?\nCould you leave me out of this one...?")
   0()
  EndIf()
  If(0,6,0)
   ShowMessageFace("sonia_fc2",2,0,2,9)
   ShowMessage("\\n<Sonya>It looks like the enemy army is fighting their way towards Grangold Palace, even though it was completely destroyed during the last war...")
   0()
  Else()
   ShowMessageFace("ruka_fc1",0,0,2,10)
   ShowMessage("\\n<Luka>It looks like the enemy army is fighting their way towards Grangold Palace, even though it was completely destroyed during the last war...")
   0()
  EndIf()
  If(0,4,0)
   ShowMessageFace("alice_fc5",0,0,2,11)
   ShowMessage("\\n<Alice>The spiders probably don't know that the palace is out of commission. It's a stroke of luck for us that they have the wrong target.")
   ShowMessageFace("alice_fc5",2,0,2,12)
   ShowMessage("\\n<Alice>Though once they discover the warehouse serving as the seat of government, it won't hold out for long. We better defeat the Spider Princess before then!")
   0()
  EndIf()
  If(0,5,0)
   ShowMessageFace("iriasu_fc4",2,0,2,13)
   ShowMessage("\\n<Ilias>The spiders are likely unaware that the palace is out of commission. It is rather convenient for us that they have the wrong target.")
   ShowMessageFace("iriasu_fc4",7,0,2,14)
   ShowMessage("\\n<Ilias>Though once they discover the warehouse serving as the seat of government, it will not hold out for long. We must defeat the Spider Princess before then!")
   0()
  EndIf()
  If(4,275,0)
   ShowMessageFace("beelzebub_fc1",0,0,2,15)
   ShowMessage("\\n<Barbarella>These eight-legged freaks think they own the place? We'll have to teach them a lesson.")
   0()
  EndIf()
  If(4,268,0)
   ShowMessageFace("queenant_fc1",1,0,2,16)
   ShowMessage("\\n<Antine Ann>We should hurry and defeat their leader.\nHold out just a bit longer, girls...")
   0()
  EndIf()
  ShowMessageFace("ruka_fc1",0,0,2,17)
  ShowMessage("\\n<Luka>All right, let's go!")
  ChangeSelfSwitch("A",0)
  0()
 PAGE   2
  // condition: self-switch A is ON
  0()



EVENT   45
 PAGE   1
  If(0,2245,1)
   ShowMessageFace("",0,0,2,1)
   ShowMessage("\\n<Magical Engineer>This is looking bad. There are too many of them!")
   0()
  EndIf()
  If(0,2245,0)
   ShowMessageFace("",0,0,2,2)
   ShowMessage("\\n<Magical Engineer>I'm trying to do maintenance, but materials are hard to come by. We're kind of screwed here...")
   0()
  EndIf()
  0()



EVENT   46
 PAGE   1
  ShowMessageFace("ant_fc1",0,0,2,1)
  ShowMessage("\\n<Ant Girl>YOU WILL NOT GO ANY FURTHER!")
  0()



EVENT   47
 PAGE   1
  ShowMessageFace("",0,0,2,1)
  ShowMessage("\\n<Soldier>Fortunately the enemy doesn't know that the palace is a ruin. We're defending it so hard just to keep their attention focused on the wrong place.")
  If(0,4,0)
   ShowMessageFace("alice_fc5",2,0,2,2)
   ShowMessage("\\n<Alice>The diversion looks like it's working.\nLet's use the opportunity to attack the Spider Princess!")
   0()
  EndIf()
  If(0,5,0)
   ShowMessageFace("iriasu_fc4",7,0,2,3)
   ShowMessage("\\n<Ilias>Your diversionary tactics seem effective.\nLet's use the opportunity to attack the Spider Princess!")
   0()
  EndIf()
  0()



EVENT   48
 PAGE   1
  ShowMessageFace("ant_fc1",1,0,2,1)
  ShowMessage("\\n<Ant Girl>CAN'T MOVE...")
  0()



EVENT   49
 PAGE   1
  ShowMessageFace("ant_fc1",0,0,2,1)
  ShowMessage("\\n<Ant Girl>ENEMY, ATTACK.")
  ShowMessageFace("arachnes_fc2",2,0,2,2)
  ShowMessage("\\n<Arachnes>Why are you ant girls defending a human palace?")
  0()



EVENT   50
 PAGE   1
  ShowMessageFace("",0,0,2,1)
  ShowMessage("\\n<Middle-age Man>Why must Grangold endure hardship after hardship...")
  0()



EVENT   51
 PAGE   1
  ShowMessageFace("ant_fc1",1,0,2,1)
  ShowMessage("\\n<Ant Girl>INJURIES... SEVERE...")
  0()



EVENT   52
 PAGE   1
  ShowMessageFace("",0,0,2,1)
  ShowMessage("\\n<Soldier>Haaa, haaa...\nHow much longer can we hold out here...?")
  0()



EVENT   53
 PAGE   1
  ShowMessageFace("",0,0,2,1)
  ShowMessage("Royal Warehouse")
  ShowMessage("Do Not Enter")
  0()



EVENT   54
 PAGE   1
  0()



EVENT   55
 PAGE   1
  ShowMessageFace("kumo_fc1",0,0,2,1)
  ShowMessage("\\n<Spider Girl>I'm going to cocoon you in silk and eat you!")
  If(4,235,0)
   ShowMessageFace("kaiko_fc1",0,0,2,2)
   ShowMessage("\\n<Silk>You're going to be the one cocooned...")
   0()
  EndIf()
  Battle(0,124,false,false)
  TemporaryRemoveEvent()
  0()



EVENT   56
 PAGE   1
  ShowMessageFace("ant_fc1",0,0,2,1)
  ShowMessage("\\n<Ant Girl>ENEMY, ATTACK.")
  ShowMessageFace("arachnes_fc2",2,0,2,2)
  ShowMessage("\\n<Arachnes>Why are you ant girls defending a human palace?")
  0()



EVENT   57
 PAGE   1
  ShowMessageFace("ant_fc1",0,0,2,1)
  ShowMessage("\\n<Ant Girl>THIS ROAD IS BLOCKED OFF!")
  0()



EVENT   58
 PAGE   1
  ShowMessageFace("bgolem_fc1",1,0,2,1)
  ShowMessage("\\n<Black Golem Girl>Don't underestimate Grangold's magical engineering!")
  ShowMessageFace("arachnes_fc2",2,0,2,2)
  ShowMessage("\\n<Arachnes>Golems are plain and boring. Get out of my way!")
  0()



EVENT   59
 PAGE   1
  ShowMessageFace("",0,0,2,1)
  ShowMessage("\\n<Minstrel>I hear a song of destruction...")
  0()



EVENT   60
 PAGE   1
  ShowMessageFace("atlach_fc1",0,0,2,1)
  ShowMessage("\\n<Nacha>...")
  0()



EVENT   61
 PAGE   1
  ShowMessageFace("",0,0,2,1)
  ShowMessage("\\n<Old Man>So sticky...")
  0()



EVENT   62
 PAGE   1
  If(0,2241,1)
   ShowMessageFace("kumo_fc1",0,0,2,1)
   ShowMessage("\\n<Spider Girl>I'm going to wrap you up and slurp all your semen...")
   ShowMessageFace("",0,0,2,2)
   ShowMessage("\\n<Youth>G-Get away!\nAaah, get this silk off me!!")
   0()
  EndIf()
  If(0,2241,0)
   ShowMessageFace("",0,0,2,3)
   ShowMessage("\\n<Youth>My body is covered in sticky spider silk.\nOh goddess, this feels so good, I could get addicted to it.")
   0()
  EndIf()
  0()



EVENT   63
 PAGE   1
  ShowMessageFace("",0,0,2,1)
  ShowMessage("\\n<Town Girl>Take some herbs!")
  0()



EVENT   64
 PAGE   1
  ShowMessageFace("",0,0,2,1)
  ShowMessage("\\n<Soldier>I don't have the strength to hold them back...\nI'm so ashamed...")
  0()



EVENT   65
 PAGE   1
  ShowMessageFace("",0,0,2,1)
  ShowMessage("\\n<Young Girl>Are you all right, antie!?")
  0()



EVENT   66
 PAGE   1
  ShowMessageFace("ant_fc1",0,0,2,1)
  ShowMessage("\\n<Ant Girl>YOU WILL NOT GO ANY FURTHER!")
  0()



EVENT   67
 PAGE   1
  ShowMessageFace("",0,0,2,1)
  ShowMessage("\\n<Youth>Auuuu...")
  0()



EVENT   68
 PAGE   1
  ShowMessageFace("",0,0,2,1)
  ShowMessage("\\n<Soldier>Gah... I can't move thanks to all this spider silk...")
  0()



EVENT   69
 PAGE   1
  If(0,2242,1)
   ShowMessageFace("taran_fc1",1,0,2,1)
   ShowMessage("\\n<Tarantula Girl>Feels good, doesn't it?\nIt's only going to get better...")
  ShowMessageFace("",0,0,2,2)
  ShowMessage("\\n<Man>Eeeek! Please, no more!!")
   0()
  EndIf()
  If(0,2242,0)
   ShowMessageFace("",0,0,2,3)
   ShowMessage("\\n<Man>Being raped by a monster...\nIs absolutely amazing...")
   0()
  EndIf()
  0()



EVENT   70
 PAGE   1
  ShowMessageFace("ant_fc1",0,0,2,1)
  ShowMessage("\\n<Ant Girl>YOU WILL NOT GO ANY FURTHER!")
  0()



EVENT   71
 PAGE   1
  ShowMessageFace("ant_fc1",0,0,2,1)
  ShowMessage("\\n<Ant Girl>YOU WILL NOT GO ANY FURTHER!")
  0()



EVENT   72
 PAGE   1
  ShowMessageFace("",0,0,2,1)
  ShowMessage("\\n<Middle-age Man>Getting cocooned feels... s-so good...")
  0()



EVENT   73
 PAGE   1
  ShowMessageFace("ant_fc1",0,0,2,1)
  ShowMessage("\\n<Ant Girl>THIS ROAD IS BLOCKED OFF!")
  0()



EVENT   74
 PAGE   1
  ShowMessageFace("ant_fc1",0,0,2,1)
  ShowMessage("\\n<Ant Girl>YOU WILL NOT GO ANY FURTHER!")
  0()

EVENT   75
 PAGE   1
  ShowMessageFace("arachnes_fc2",0,0,2,1)
  ShowMessage("\\n<Arachnes>...")
  0()



EVENT   76
 PAGE   1
  ShowMessageFace("",0,0,2,1)
  ShowMessage("\\n<Traveling Warrior>I can't believe I got caught up in this mess.")
  0()



EVENT   77
 PAGE   1
  ShowMessageFace("",0,0,2,1)
  ShowMessage("\\n<Clown>Can't move... This silk is too sticky...")
  0()



EVENT   78
 PAGE   1
  ShowMessageFace("",0,0,2,1)
  ShowMessage("\\n<Youth>This sticky silk cocoon feels too good...\nAh, aaaaah...")
  0()



EVENT   79
 PAGE   1
  ShowMessageFace("",0,0,2,1)
  ShowMessage("\\n<Soldier>Mmmmmn...")
  0()



EVENT   80
 PAGE   1
  ShowMessageFace("",0,0,2,1)
  ShowMessage("\\n<Soldier>Do we human soldiers even have a chance...?")
  0()



EVENT   81
 PAGE   1
  ShowMessageFace("ant_fc1",0,0,2,1)
  ShowMessage("\\n<Ant Girl>THIS ROAD IS BLOCKED OFF!")
  0()



EVENT   82
 PAGE   1
  // condition: switch 37 is ON
  0()



EVENT   83
 PAGE   1
  ShowMessageFace("taran_fc1",0,0,2,1)
  ShowMessage("\\n<Tarantula Girl>Can I eat you...?")
  If(4,536,0)
   ShowMessageFace("serene_fc1",3,0,2,2)
   ShowMessage("\\n<Selene>I'll chop a few of those legs off you.")
   0()
  EndIf()
  Battle(0,215,false,false)
  TemporaryRemoveEvent()
  0()



EVENT   84
 PAGE   1
  ShowMessageFace("mikoarachne_fc1",0,0,2,1)
  ShowMessage("\\n<Miko Arachne>Energetic hero spotted! ♪\nCan I wrap your body up for you?")
  If(4,226,0)
   ShowMessageFace("sirohebisama_fc1",0,0,2,2)
   ShowMessage("\\n<Shirohebi>Hmph, we'll see who's doing the wrapping around here!")
   0()
  EndIf()
  Battle(0,643,false,false)
  TemporaryRemoveEvent()
  0()



EVENT   85
 PAGE   1
  ShowMessageFace("ant_fc1",0,0,2,1)
  ShowMessage("\\n<Ant Girl>YOU WILL NOT GO ANY FURTHER!")
  0()



EVENT   86
 PAGE   1
  ShowMessageFace("oogumo_fc1",0,0,2,1)
  ShowMessage("\\n<Large Spider>Heheh, come out and play, girl.\nI'll slowly slurp up your bodily fluids...")
  ShowMessageFace("",0,0,2,2)
  ShowMessage("\\n<Bread Seller>Oh goddess no...")
  ShowMessageFace("ruka_fc1",0,0,2,3)
  ShowMessage("\\n<Luka>Stay away from her!")
  If(4,266,0)
   ShowMessageFace("kunoitisanbi_fc1",0,0,2,4)
   ShowMessage("\\n<Minamo>Those who would harm innocent civilians shall pay.")
   0()
  EndIf()
  Battle(0,257,false,false)
  ChangeSwitch(2243,2243,0)
  ShowMessageFace("",0,0,2,5)
  ShowMessage("\\n<Bread Seller>Thank you so much!\nHere, please take all this bread!")
  250(bytes(0x04,0x08,0x6f,0x3a,0x0c,0x52,0x50,0x47,0x3a,0x3a,0x53,0x45,0x08,0x3a,0x0a,0x40,0x6e,0x61,0x6d,0x65,0x49,0x22,0x0a,0x49,0x74,0x65,0x6d,0x31,0x06,0x3a,0x06,0x45,0x54,0x3a,0x0b,0x40,0x70,0x69,0x74,0x63,0x68,0x69,0x69,0x3a,0x0c,0x40,0x76,0x6f,0x6c,0x75,0x6d,0x65,0x69,0x55))
  ChangeInventory_Item(343,0,0,3)
  ChangeInventory_Item(345,0,0,5)
  ChangeInventory_Item(346,0,0,2)
  ChangeInventory_Item(348,0,0,2)
  ChangeInventory_Item(350,0,0,3)
  ChangeInventory_Item(351,0,0,3)
  ChangeInventory_Item(352,0,0,2)
  EndEventProcessing()
  0()
 PAGE   2
  // condition: switch 2243 is ON
  0()



EVENT   87
 PAGE   1
  ShowMessageFace("oogumo_fc1",0,0,2,1)
  ShowMessage("\\n<Large Spider>A hero? You'll be my prey, too!")
  If(4,196,0)
   ShowMessageFace("s_mermaid_fc1",0,0,2,2)
   ShowMessage("\\n<Mink>You done talkin'?\nSay goodbye then!")
   0()
  EndIf()
  Battle(0,257,false,false)
  TemporaryRemoveEvent()
  0()



EVENT   88
 PAGE   1
  ShowMessageFace("golem_fc1",0,0,2,1)
  ShowMessage("\\n<Golem Girl>*WHIRRRRR...*")
  ShowMessageFace("arachnes_fc2",2,0,2,2)
  ShowMessage("\\n<Arachne A>Whoa, what's a giant doing here?!")
  ShowMessageFace("arachnes_fc3",0,0,2,3)
  ShowMessage("\\n<Arachne B>Maybe we can all take it at once?")
  ShowMessageFace("",0,0,2,4)
  ShowMessage("\\n<Magical Engineer>This is looking bad. There are too many of them!")
  ShowMessageFace("ruka_fc1",0,0,2,5)
  ShowMessage("\\n<Luka>Fight me instead!")
  If(4,262,0)
   ShowMessageFace("golem_fc1",0,0,2,6)
   ShowMessage("\\n<Emeth>*WHIRRRRR...*")
   0()
  EndIf()
  Battle(0,803,false,false)
  ChangeSwitch(2245,2245,0)
  ShowMessageFace("",0,0,2,7)
  ShowMessage("\\n<Magical Engineer>Thanks! Here, this might be useful to you.")
  250(bytes(0x04,0x08,0x6f,0x3a,0x0c,0x52,0x50,0x47,0x3a,0x3a,0x53,0x45,0x08,0x3a,0x0a,0x40,0x6e,0x61,0x6d,0x65,0x49,0x22,0x0a,0x49,0x74,0x65,0x6d,0x31,0x06,0x3a,0x06,0x45,0x54,0x3a,0x0b,0x40,0x70,0x69,0x74,0x63,0x68,0x69,0x69,0x3a,0x0c,0x40,0x76,0x6f,0x6c,0x75,0x6d,0x65,0x69,0x55))
  ChangeInventory_Item(9,0,0,1)
  EndEventProcessing()
  0()
 PAGE   2
  // condition: switch 2245 is ON
  0()



EVENT   89
 PAGE   1
  ShowMessageFace("arachnes_fc2",0,0,2,1)
  ShowMessage("\\n<Arachnes>...")
  0()



EVENT   90
 PAGE   1
  ShowMessageFace("arachnes_fc2",0,0,2,1)
  ShowMessage("\\n<Arachne A>Hey, come play with us!")
  ShowMessageFace("arachnes_fc3",0,0,2,2)
  ShowMessage("\\n<Arachne B>We'll wrap you all up in silk... okay?")
  If(4,237,0)
   ShowMessageFace("alplants_fc1",0,0,2,3)
   ShowMessage("\\n<Alplants>Based on our numbers, we can't lose!")
   0()
  EndIf()
  Battle(0,803,false,false)
  TemporaryRemoveEvent()
  0()



EVENT   91
 PAGE   1
  ShowMessageFace("ant_fc1",0,0,2,1)
  ShowMessage("\\n<Ant Girl>THIS ROAD IS BLOCKED OFF!")
  0()



EVENT   92
 PAGE   1
  ShowMessageFace("ant_fc1",0,0,2,1)
  ShowMessage("\\n<Ant Girl>THIS ROAD IS BLOCKED OFF!")
  0()



EVENT   93
 PAGE   1
  ShowMessageFace("ant_fc1",0,0,2,1)
  ShowMessage("\\n<Ant Girl>THIS ROAD IS BLOCKED OFF!")
  0()



EVENT   94
 PAGE   1
  ShowMessageFace("atlach_fc1",0,0,2,1)
  ShowMessage("\\n<Nacha>...")
  0()



EVENT   95
 PAGE   1
  If(0,2245,1)
   ShowMessageFace("golem_fc1",0,0,2,1)
   ShowMessage("\\n<Golem Girl>*WHIRRRRR...*")
   ShowMessageFace("arachnes_fc2",2,0,2,2)
   ShowMessage("\\n<Arachne A>Whoa, what's a giant doing here?!")
   ShowMessageFace("arachnes_fc3",0,0,2,3)
   ShowMessage("\\n<Arachne B>Maybe we can all take it at once?")
   ShowMessageFace("",0,0,2,4)
   ShowMessage("\\n<Magical Engineer>This is looking bad. There are too many of them!")
   0()
  EndIf()
  If(0,2245,0)
   ShowMessageFace("golem_fc1",0,0,2,5)
   ShowMessage("\\n<Golem Girl>*WHIRRRRR...*")
   ShowMessageFace("",0,0,2,6)
   ShowMessage("\\n<Magical Engineer>You're not going to work well covered with spider silk. I'll have to perform some maintenance...")
   0()
  EndIf()
  0()



EVENT   96
 PAGE   1
  ShowMessageFace("kumo_fc1",0,0,2,1)
  ShowMessage("\\n<Spider Girl>I'm going to wrap you up and slurp all your semen...")
  ShowMessageFace("",0,0,2,2)
  ShowMessage("\\n<Youth>G-Get away!\nAaah, get this silk off me!!")
  ShowMessageFace("ruka_fc1",0,0,2,3)
  ShowMessage("\\n<Luka>Let him go!")
  If(4,289,0)
   ShowMessageFace("maidscyulla_fc1",1,0,2,4)
   ShowMessage("\\n<Ran>Seems someone needs to be taught proper manners...")
   0()
  EndIf()
  Battle(0,124,false,false)
  ChangeSwitch(2241,2241,0)
  ShowMessageFace("",0,0,2,5)
  ShowMessage("\\n<Youth>A few more seconds and I would have been wrapped up tight... Here, take this in thanks.")
  250(bytes(0x04,0x08,0x6f,0x3a,0x0c,0x52,0x50,0x47,0x3a,0x3a,0x53,0x45,0x08,0x3a,0x0a,0x40,0x6e,0x61,0x6d,0x65,0x49,0x22,0x0a,0x49,0x74,0x65,0x6d,0x31,0x06,0x3a,0x06,0x45,0x54,0x3a,0x0b,0x40,0x70,0x69,0x74,0x63,0x68,0x69,0x69,0x3a,0x0c,0x40,0x76,0x6f,0x6c,0x75,0x6d,0x65,0x69,0x55))
  ChangeInventory_Item(27,0,0,1)
  EndEventProcessing()
  0()
 PAGE   2
  // condition: switch 2241 is ON
  0()



EVENT   97
 PAGE   1
  ShowMessageFace("golem_fc1",0,0,2,1)
  ShowMessage("\\n<Golem Girl>*WHIRRRRR...*")
  ShowMessageFace("arachnes_fc2",2,0,2,2)
  ShowMessage("\\n<Arachne A>Whoa, what's a giant doing here?!")
  ShowMessageFace("arachnes_fc3",0,0,2,3)
  ShowMessage("\\n<Arachne B>Maybe we can all take it at once?")
  ShowMessageFace("",0,0,2,4)
  ShowMessage("\\n<Magical Engineer>This is looking bad. There are too many of them!")
  ShowMessageFace("ruka_fc1",0,0,2,5)
  ShowMessage("\\n<Luka>Fight me instead!")
  If(4,262,0)
   ShowMessageFace("golem_fc1",0,0,2,6)
   ShowMessage("\\n<Emeth>*WHIRRRRR...*")
   0()
  EndIf()
  Battle(0,803,false,false)
  ChangeSwitch(2245,2245,0)
  ShowMessageFace("",0,0,2,7)
  ShowMessage("\\n<Magical Engineer>Thanks! Here, this might be useful to you.")
  250(bytes(0x04,0x08,0x6f,0x3a,0x0c,0x52,0x50,0x47,0x3a,0x3a,0x53,0x45,0x08,0x3a,0x0a,0x40,0x6e,0x61,0x6d,0x65,0x49,0x22,0x0a,0x49,0x74,0x65,0x6d,0x31,0x06,0x3a,0x06,0x45,0x54,0x3a,0x0b,0x40,0x70,0x69,0x74,0x63,0x68,0x69,0x69,0x3a,0x0c,0x40,0x76,0x6f,0x6c,0x75,0x6d,0x65,0x69,0x55))
  ChangeInventory_Item(9,0,0,1)
  EndEventProcessing()
  0()
 PAGE   2
  // condition: switch 2245 is ON
  0()



EVENT   98
 PAGE   1
  ShowMessageFace("ant_fc1",0,0,2,1)
  ShowMessage("\\n<Ant Girl>THIS ROAD IS BLOCKED OFF!")
  0()



EVENT   99
 PAGE   1
  ShowMessageFace("taran_fc1",1,0,2,1)
  ShowMessage("\\n<Tarantula Girl>Feels good, doesn't it?\nIt's only going to get better...")
  ShowMessageFace("",0,0,2,2)
  ShowMessage("\\n<Man>Eeeek! Please, no more!!")
  ShowMessageFace("ruka_fc1",0,0,2,3)
  ShowMessage("\\n<Luka>Let him go!")
  If(4,245,0)
   ShowMessageFace("queenbee_fc1",2,0,2,4)
   ShowMessage("\\n<Miria>Your acts of barbarism are unacceptable.")
   0()
  EndIf()
  Battle(0,215,false,false)
  ChangeSwitch(2242,2242,0)
  ShowMessageFace("",0,0,2,5)
  ShowMessage("\\n<Man>Th-Thank you...")
  250(bytes(0x04,0x08,0x6f,0x3a,0x0c,0x52,0x50,0x47,0x3a,0x3a,0x53,0x45,0x08,0x3a,0x0a,0x40,0x6e,0x61,0x6d,0x65,0x49,0x22,0x0a,0x49,0x74,0x65,0x6d,0x31,0x06,0x3a,0x06,0x45,0x54,0x3a,0x0b,0x40,0x70,0x69,0x74,0x63,0x68,0x69,0x69,0x3a,0x0c,0x40,0x76,0x6f,0x6c,0x75,0x6d,0x65,0x69,0x55))
  ChangeInventory_Item(22,0,0,1)
  EndEventProcessing()
  0()
 PAGE   2
  // condition: switch 2242 is ON
  0()



EVENT   100
 PAGE   1
  ShowMessageFace("mikoarachne_fc1",0,0,2,1)
  ShowMessage("\\n<Miko Arachne>Hora, mate with me...")
  ShowMessageFace("",0,0,2,2)
  ShowMessage("\\n<Youth>No, no thanks! Definitely no!")
  ShowMessageFace("ruka_fc1",0,0,2,3)
  ShowMessage("\\n<Luka>You heard him!")
  If(4,301,0)
   ShowMessageFace("tora_fc1",0,0,2,4)
   ShowMessage("\\n<Konan>Raping is off limits!")
   0()
  EndIf()
  Battle(0,643,false,false)
  ChangeSwitch(2244,2244,0)
  ShowMessageFace("",0,0,2,5)
  ShowMessage("\\n<Youth>Man, I was so close...\nMaybe next time.")
  250(bytes(0x04,0x08,0x6f,0x3a,0x0c,0x52,0x50,0x47,0x3a,0x3a,0x53,0x45,0x08,0x3a,0x0a,0x40,0x6e,0x61,0x6d,0x65,0x49,0x22,0x0a,0x49,0x74,0x65,0x6d,0x31,0x06,0x3a,0x06,0x45,0x54,0x3a,0x0b,0x40,0x70,0x69,0x74,0x63,0x68,0x69,0x69,0x3a,0x0c,0x40,0x76,0x6f,0x6c,0x75,0x6d,0x65,0x69,0x55))
  ChangeInventory_Item(4,0,0,1)
  EndEventProcessing()
  0()
 PAGE   2
  // condition: switch 2244 is ON
  0()



EVENT   101
 PAGE   1
  If(0,2244,1)
   ShowMessageFace("mikoarachne_fc1",0,0,2,1)
   ShowMessage("\\n<Miko Arachne>Hora, mate with me...\nI'll wrap you up nice and tight now... okay?")
   ShowMessageFace("",0,0,2,2)
   ShowMessage("\\n<Youth>No, no thanks! Definitely no!")
   0()
  EndIf()
  If(0,2244,0)
   ShowMessageFace("",0,0,2,3)
   ShowMessage("\\n<Youth>I kinda wanted to get wrapped up...")
   0()
  EndIf()
  0()



EVENT   102
 PAGE   1
  ShowMessageFace("ant_fc1",0,0,2,1)
  ShowMessage("\\n<Ant Girl>THIS ROAD IS BLOCKED OFF!")
  0()



EVENT   103
 PAGE   1
  If(0,4,0)
   ShowMessageFace("alice_fc5",2,0,2,1)
   ShowMessage("\\n<Alice>The road is completely blocked from the fighting. We'll have to find another route!")
   0()
  EndIf()
  If(0,5,0)
   ShowMessageFace("iriasu_fc4",7,0,2,2)
   ShowMessage("\\n<Ilias>The road is completely blocked from the fighting. Let's find another route!")
   0()
  EndIf()
  0()



EVENT   104
 PAGE   1
  If(0,4,0)
   ShowMessageFace("alice_fc5",2,0,2,1)
   ShowMessage("\\n<Alice>The road is completely blocked from the fighting. We'll have to find another route!")
   0()
  EndIf()
  If(0,5,0)
   ShowMessageFace("iriasu_fc4",7,0,2,2)
   ShowMessage("\\n<Ilias>The road is completely blocked from the fighting. Let's find another route!")
   0()
  EndIf()
  0()



EVENT   105
 PAGE   1
  If(0,4,0)
   ShowMessageFace("alice_fc5",2,0,2,1)
   ShowMessage("\\n<Alice>The road is completely blocked from the fighting. We'll have to find another route!")
   0()
  EndIf()
  If(0,5,0)
   ShowMessageFace("iriasu_fc4",7,0,2,2)
   ShowMessage("\\n<Ilias>The road is completely blocked from the fighting. Let's find another route!")
   0()
  EndIf()
  0()



EVENT   106
 PAGE   1
  0()



EVENT   107
 PAGE   1
  ShowMessageFace("golem_fc1",0,0,2,1)
  ShowMessage("\\n<Golem Girl>*WHIRRRRR...*")
  ShowMessageFace("arachnes_fc2",2,0,2,2)
  ShowMessage("\\n<Arachne A>Whoa, what's a giant doing here?!")
  ShowMessageFace("arachnes_fc3",0,0,2,3)
  ShowMessage("\\n<Arachne B>Maybe we can all take it at once?")
  ShowMessageFace("",0,0,2,4)
  ShowMessage("\\n<Magical Engineer>This is looking bad. There are too many of them!")
  ShowMessageFace("ruka_fc1",0,0,2,5)
  ShowMessage("\\n<Luka>Fight me instead!")
  If(4,262,0)
   ShowMessageFace("golem_fc1",0,0,2,6)
   ShowMessage("\\n<Emeth>*WHIRRRRR...*")
   0()
  EndIf()
  Battle(0,803,false,false)
  ChangeSwitch(2245,2245,0)
  ShowMessageFace("",0,0,2,7)
  ShowMessage("\\n<Magical Engineer>Thanks! Here, this might be useful to you.")
  250(bytes(0x04,0x08,0x6f,0x3a,0x0c,0x52,0x50,0x47,0x3a,0x3a,0x53,0x45,0x08,0x3a,0x0a,0x40,0x6e,0x61,0x6d,0x65,0x49,0x22,0x0a,0x49,0x74,0x65,0x6d,0x31,0x06,0x3a,0x06,0x45,0x54,0x3a,0x0b,0x40,0x70,0x69,0x74,0x63,0x68,0x69,0x69,0x3a,0x0c,0x40,0x76,0x6f,0x6c,0x75,0x6d,0x65,0x69,0x55))
  ChangeInventory_Item(9,0,0,1)
  EndEventProcessing()
  0()
 PAGE   2
  // condition: switch 2245 is ON
  0()



EVENT   108
 PAGE   1
  0()



EVENT   109
 PAGE   1
  0()



EVENT   110
 PAGE   1
  0()



EVENT   111
 PAGE   1
  ShowMessageFace("ant_fc1",0,0,2,1)
  ShowMessage("\\n<Ant Girl>YOU WILL NOT GO ANY FURTHER!")
  0()



EVENT   113
 PAGE   1
  ShowMessageFace("ant_fc1",0,0,2,1)
  ShowMessage("\\n<Ant Girl>THIS ROAD IS BLOCKED OFF!")
  0()



EVENT   114
 PAGE   1
  ShowMessageFace("kumo_fc1",0,0,2,1)
  ShowMessage("\\n<Spider Girl>.........")
  0()



EVENT   115
 PAGE   1
  ShowMessageFace("taran_fc1",0,0,2,1)
  ShowMessage("\\n<Tarantula Girl>.........")
  0()



EVENT   116
 PAGE   1
  ShowMessageFace("arachnes_fc2",0,0,2,1)
  ShowMessage("\\n<Arachnes>...")
  0()



EVENT   117
 PAGE   1
  ShowMessageFace("arachnes_fc2",0,0,2,1)
  ShowMessage("\\n<Arachnes>...")
  0()



EVENT   118
 PAGE   1
  ShowMessageFace("arachnes_fc2",0,0,2,1)
  ShowMessage("\\n<Arachnes>...")
  0()



EVENT   119
 PAGE   1
  ShowMessageFace("oogumo_fc1",0,0,2,1)
  ShowMessage("\\n<Large Spider>.........")
  0()



EVENT   120
 PAGE   1
  ShowMessageFace("arachnes_fc2",0,0,2,1)
  ShowMessage("\\n<Arachnes>...")
  0()



EVENT   121
 PAGE   1
  ShowMessageFace("arachnes_fc2",0,0,2,1)
  ShowMessage("\\n<Arachnes>...")
  0()



EVENT   122
 PAGE   1
  ShowMessageFace("arachnes_fc2",0,0,2,1)
  ShowMessage("\\n<Arachnes>...")
  0()



EVENT   123
 PAGE   1
  ShowMessageFace("taran_fc1",0,0,2,1)
  ShowMessage("\\n<Tarantula Girl>.........")
  0()



EVENT   125
 PAGE   1
  ShowMessageFace("oogumo_fc1",0,0,2,1)
  ShowMessage("\\n<Large Spider>.........")
  0()



EVENT   126
 PAGE   1
  ShowMessageFace("arachnes_fc2",0,0,2,1)
  ShowMessage("\\n<Arachnes>...")
  0()



EVENT   127
 PAGE   1
  ShowMessageFace("arachnes_fc2",0,0,2,1)
  ShowMessage("\\n<Arachnes>...")
  0()



EVENT   128
 PAGE   1
  ShowMessageFace("arachnes_fc2",0,0,2,1)
  ShowMessage("\\n<Arachnes>...")
  0()



EVENT   129
 PAGE   1
  ShowMessageFace("kumo_fc1",0,0,2,1)
  ShowMessage("\\n<Spider Girl>.........")
  0()



EVENT   130
 PAGE   1
  ShowMessageFace("arachnes_fc2",0,0,2,1)
  ShowMessage("\\n<Arachnes>...")
  0()



EVENT   131
 PAGE   1
  ShowMessageFace("",0,0,2,1)
  ShowMessage("\\n<Soldier>I was useless...")
  0()



EVENT   132
 PAGE   1
  ShowMessageFace("ant_fc1",1,0,2,1)
  ShowMessage("\\n<Ant Girl>.........")
  0()



EVENT   133
 PAGE   1
  ShowMessageFace("ant_fc1",1,0,2,1)
  ShowMessage("\\n<Ant Girl>I FAILED...")
  0()



EVENT   134
 PAGE   1
  ShowMessageFace("ant_fc1",1,0,2,1)
  ShowMessage("\\n<Ant Girl>GUHHHH...")
  0()



EVENT   135
 PAGE   1
  ShowMessageFace("",0,0,2,1)
  ShowMessage("\\n<Soldier>I got wrapped up in silk. It felt so good that I lost all will to resist...")
  0()



EVENT   136
 PAGE   1
  ShowMessageFace("ant_fc1",1,0,2,1)
  ShowMessage("\\n<Ant Girl>.........")
  0()



EVENT   137
 PAGE   1
  ShowMessageFace("ant_fc1",1,0,2,1)
  ShowMessage("\\n<Ant Girl>.........")
  0()



EVENT   138
 PAGE   1
  ShowMessageFace("",0,0,2,1)
  ShowMessage("\\n<Thug>We've got to take these injured ant girls to get medical care!\n...Gah, they're so heavy...")
  0()



EVENT   139
 PAGE   1
  ShowMessageFace("",0,0,2,1)
  ShowMessage("\\n<Woman>Don't give up. Just take some time to rest!")
  0()



EVENT   140
 PAGE   1
  ShowMessageFace("ant_fc1",1,0,2,1)
  ShowMessage("\\n<Ant Girl>.........")
  0()



EVENT   141
 PAGE   1
  ShowMessageFace("ant_fc1",1,0,2,1)
  ShowMessage("\\n<Ant Girl>MY QUEEN...")
  0()



EVENT   142
 PAGE   1
  ShowMessageFace("ant_fc1",1,0,2,1)
  ShowMessage("\\n<Ant Girl>.........")
  0()



EVENT   143
 PAGE   1
  ShowMessageFace("",0,0,2,1)
  ShowMessage("\\n<Sister>Sigh, we're running low on medicine...")
  0()



EVENT   144
 PAGE   1
  ShowMessageFace("",0,0,2,1)
  ShowMessage("\\n<Priest>My magic power is almost drained. These recovery spells are hardly doing anything now...")
  0()



EVENT   145
 PAGE   1
  ShowMessageFace("ant_fc1",1,0,2,1)
  ShowMessage("\\n<Ant Girl>.........")
  0()



EVENT   146
 PAGE   1
  ShowMessageFace("",0,0,2,1)
  ShowMessage("\\n<Soldier>Ugh...")
  0()



EVENT   147
 PAGE   1
  ShowMessageFace("arachnes_fc2",0,0,2,1)
  ShowMessage("\\n<Arachnes>...")
  0()



EVENT   148
 PAGE   1
  ShowMessageFace("arachnes_fc2",0,0,2,1)
  ShowMessage("\\n<Arachnes>...")
  0()



EVENT   149
 PAGE   1
  ShowMessageFace("arachnes_fc2",0,0,2,1)
  ShowMessage("\\n<Arachnes>...")
  0()



EVENT   150
 PAGE   1
  ShowMessageFace("arachnes_fc2",0,0,2,1)
  ShowMessage("\\n<Arachnes>...")
  0()



EVENT   151
 PAGE   1
  ShowMessageFace("arachnes_fc2",0,0,2,1)
  ShowMessage("\\n<Arachnes>...")
  0()



EVENT   152
 PAGE   1
  ShowMessageFace("arachnes_fc2",0,0,2,1)
  ShowMessage("\\n<Arachnes>...")
  0()



EVENT   153
 PAGE   1
  ShowMessageFace("arachnes_fc2",0,0,2,1)
  ShowMessage("\\n<Arachnes>...")
  0()



EVENT   154
 PAGE   1
  ShowMessageFace("arachnes_fc2",0,0,2,1)
  ShowMessage("\\n<Arachnes>...")
  0()



EVENT   155
 PAGE   1
  ShowMessageFace("arachnes_fc2",0,0,2,1)
  ShowMessage("\\n<Arachnes>...")
  0()



EVENT   156
 PAGE   1
  ShowMessageFace("arachnes_fc2",0,0,2,1)
  ShowMessage("\\n<Arachnes>...")
  0()



EVENT   157
 PAGE   1
  ShowMessageFace("arachnes_fc1",0,0,2,1)
  ShowMessage("\\n<Arachnes>Hey, what are you idiots doing!?\nWe can't all fit like this!")
  If(0,4,0)
   ShowMessageFace("alice_fc5",2,0,2,2)
   ShowMessage("\\n<Alice>The Spider Princess is definitely no military genius. She sent so many troops to the palace that they're getting in each other's way.")
   0()
  EndIf()
  If(0,5,0)
   ShowMessageFace("iriasu_fc4",2,0,2,3)
   ShowMessage("\\n<Ilias>The Spider Princess is a terrible tactician.\nShe focused so hard on the palace that her troops cannot even move in the crowd.")
   0()
  EndIf()
  ShowMessageFace("ruka_fc1",0,0,2,4)
  ShowMessage("\\n<Luka>Anyway, it doesn't look like we can get any closer from this side...")
  0()



EVENT   158
 PAGE   1
  ShowMessageFace("arachnes_fc2",0,0,2,1)
  ShowMessage("\\n<Arachnes>...")
  0()



EVENT   159
 PAGE   1
  ShowMessageFace("arachnes_fc2",0,0,2,1)
  ShowMessage("\\n<Arachnes>...")
  0()



EVENT   160
 PAGE   1
  ShowMessageFace("arachnes_fc2",0,0,2,1)
  ShowMessage("\\n<Arachnes>...")
  0()



EVENT   161
 PAGE   1
  ShowMessageFace("arachnes_fc2",0,0,2,1)
  ShowMessage("\\n<Arachnes>...")
  0()



EVENT   162
 PAGE   1
  ShowMessageFace("arachnes_fc1",0,0,2,1)
  ShowMessage("\\n<Arachnes>Hey, what are you idiots doing!?\nWe can't all fit like this!")
  If(0,4,0)
   ShowMessageFace("alice_fc5",2,0,2,2)
   ShowMessage("\\n<Alice>The Spider Princess is definitely no military genius. She sent so many troops to the palace that they're getting in each other's way.")
   0()
  EndIf()
  If(0,5,0)
   ShowMessageFace("iriasu_fc4",2,0,2,3)
   ShowMessage("\\n<Ilias>The Spider Princess is a terrible tactician.\nShe focused so hard on the palace that her troops cannot even move in the crowd.")
   0()
  EndIf()
  ShowMessageFace("ruka_fc1",0,0,2,4)
  ShowMessage("\\n<Luka>Anyway, it doesn't look like we can get any closer from this side...")
  0()



EVENT   163
 PAGE   1
  ShowMessageFace("arachnes_fc2",0,0,2,1)
  ShowMessage("\\n<Arachnes>...")
  0()



EVENT   164
 PAGE   1
  ShowMessageFace("taran_fc1",0,0,2,1)
  ShowMessage("\\n<Tarantula Girl>.........")
  0()



EVENT   165
 PAGE   1
  ShowMessageFace("taran_fc1",0,0,2,1)
  ShowMessage("\\n<Tarantula Girl>.........")
  0()



EVENT   166
 PAGE   1
  ShowMessageFace("taran_fc1",0,0,2,1)
  ShowMessage("\\n<Tarantula Girl>.........")
  0()



EVENT   167
 PAGE   1
  ShowMessageFace("kumo_fc1",0,0,2,1)
  ShowMessage("\\n<Spider Girl>.........")
  0()



EVENT   168
 PAGE   1
  ShowMessageFace("kumo_fc1",0,0,2,1)
  ShowMessage("\\n<Spider Girl>.........")
  0()



EVENT   169
 PAGE   1
  ShowMessageFace("kumo_fc1",0,0,2,1)
  ShowMessage("\\n<Spider Girl>.........")
  0()



EVENT   170
 PAGE   1
  ShowMessageFace("oogumo_fc1",0,0,2,1)
  ShowMessage("\\n<Large Spider>.........")
  0()



EVENT   171
 PAGE   1
  ShowMessageFace("oogumo_fc1",0,0,2,1)
  ShowMessage("\\n<Large Spider>.........")
  0()



EVENT   172
 PAGE   1
  ShowMessageFace("oogumo_fc1",0,0,2,1)
  ShowMessage("\\n<Large Spider>.........")
  0()



EVENT   173
 PAGE   1
  ShowMessageFace("oogumo_fc1",0,0,2,1)
  ShowMessage("\\n<Large Spider>.........")
  0()



EVENT   174
 PAGE   1
  ShowMessageFace("mikoarachne_fc1",0,0,2,1)
  ShowMessage("\\n<Miko Arachne>...")
  0()



EVENT   175
 PAGE   1
  ShowMessageFace("mikoarachne_fc1",0,0,2,1)
  ShowMessage("\\n<Miko Arachne>...")
  0()



EVENT   176
 PAGE   1
  ShowMessageFace("mikoarachne_fc1",0,0,2,1)
  ShowMessage("\\n<Miko Arachne>...")
  0()



EVENT   177
 PAGE   1
  ShowMessageFace("arachnes_fc1",0,0,2,1)
  ShowMessage("\\n<Arachnes>Hey, what are you idiots doing!?\nWe can't all fit like this!")
  If(0,4,0)
   ShowMessageFace("alice_fc5",2,0,2,2)
   ShowMessage("\\n<Alice>The Spider Princess is definitely no military genius. She sent so many troops to the palace that they're getting in each other's way.")
   0()
  EndIf()
  If(0,5,0)
   ShowMessageFace("iriasu_fc4",2,0,2,3)
   ShowMessage("\\n<Ilias>The Spider Princess is a terrible tactician.\nShe focused so hard on the palace that her troops cannot even move in the crowd.")
   0()
  EndIf()
  ShowMessageFace("ruka_fc1",0,0,2,4)
  ShowMessage("\\n<Luka>Anyway, it doesn't look like we can get any closer from this side...")
  0()



EVENT   178
 PAGE   1
  ShowMessageFace("arachnes_fc1",0,0,2,1)
  ShowMessage("\\n<Arachnes>Hey, what are you idiots doing!?\nWe can't all fit like this!")
  If(0,4,0)
   ShowMessageFace("alice_fc5",2,0,2,2)
   ShowMessage("\\n<Alice>The Spider Princess is definitely no military genius. She sent so many troops to the palace that they're getting in each other's way.")
   0()
  EndIf()
  If(0,5,0)
   ShowMessageFace("iriasu_fc4",2,0,2,3)
   ShowMessage("\\n<Ilias>The Spider Princess is a terrible tactician.\nShe focused so hard on the palace that her troops cannot even move in the crowd.")
   0()
  EndIf()
  ShowMessageFace("ruka_fc1",0,0,2,4)
  ShowMessage("\\n<Luka>Anyway, it doesn't look like we can get any closer from this side...")
  0()



EVENT   179
 PAGE   1
  ShowMessageFace("arachnes_fc1",0,0,2,1)
  ShowMessage("\\n<Arachnes>Hey, what are you idiots doing!?\nWe can't all fit like this!")
  If(0,4,0)
   ShowMessageFace("alice_fc5",2,0,2,2)
   ShowMessage("\\n<Alice>The Spider Princess is definitely no military genius. She sent so many troops to the palace that they're getting in each other's way.")
   0()
  EndIf()
  If(0,5,0)
   ShowMessageFace("iriasu_fc4",2,0,2,3)
   ShowMessage("\\n<Ilias>The Spider Princess is a terrible tactician.\nShe focused so hard on the palace that her troops cannot even move in the crowd.")
   0()
  EndIf()
  ShowMessageFace("ruka_fc1",0,0,2,4)
  ShowMessage("\\n<Luka>Anyway, it doesn't look like we can get any closer from this side...")
  0()



EVENT   180
 PAGE   1
  ShowMessageFace("taran_fc1",0,0,2,1)
  ShowMessage("\\n<Tarantula Girl>.........")
  0()



EVENT   181
 PAGE   1
  ShowMessageFace("artm_fc1",0,0,2,1)
  ShowMessage("\\n<Automata Girl>Eliminate invaders...")
  ShowMessageFace("arachnes_fc2",2,0,2,2)
  ShowMessage("\\n<Arachnes>Get out of my way, you bucket of bolts!")
  0()



EVENT   182
 PAGE   1
  ShowMessageFace("artm_fc1",0,0,2,1)
  ShowMessage("\\n<Automata Girl>Eliminate invaders...")
  ShowMessageFace("arachnes_fc2",2,0,2,2)
  ShowMessage("\\n<Arachnes>Get out of my way, you bucket of bolts!")
  0()



EVENT   183
 PAGE   1
  ShowMessageFace("ant_fc1",1,0,2,1)
  ShowMessage("\\n<Ant Girl>MANY ENEMIES... INVADE CITY...")
  0()



EVENT   184
 PAGE   1
  ShowMessageFace("ant_fc1",1,0,2,1)
  ShowMessage("\\n<Ant Girl>OUT OF COMMISSION...")
  0()



EVENT   185
 PAGE   1
  ShowMessageFace("",0,0,2,1)
  ShowMessage("\\n<Soldier>Most of their army... at the palace...")
  0()



EVENT   186
 PAGE   1
  0()



EVENT   187
 PAGE   1
  ShowMessageFace("paizuridoll_fc1",0,0,2,1)
  ShowMessage("\\n<Paizuri Doll A>...Squish.")
  ShowMessageFace("paizuridoll_fc1",0,0,2,2)
  ShowMessage("\\n<Paizuri Doll B>Boing, boing...")
  ShowMessageFace("arachnes_fc3",2,0,2,3)
  ShowMessage("\\n<Arachnes>Aaah... Their boobs, so soft...")
  0()



EVENT   188
 PAGE   1
  ShowMessageFace("paizuridoll_fc1",0,0,2,1)
  ShowMessage("\\n<Paizuri Doll A>...Squish.")
  ShowMessageFace("paizuridoll_fc1",0,0,2,2)
  ShowMessage("\\n<Paizuri Doll B>Boing, boing...")
  ShowMessageFace("arachnes_fc3",2,0,2,3)
  ShowMessage("\\n<Arachnes>Aaah... Their boobs, so soft...")
  0()



EVENT   189
 PAGE   1
  ShowMessageFace("paizuridoll_fc1",0,0,2,1)
  ShowMessage("\\n<Paizuri Doll A>...Squish.")
  ShowMessageFace("paizuridoll_fc1",0,0,2,2)
  ShowMessage("\\n<Paizuri Doll B>Boing, boing...")
  ShowMessageFace("arachnes_fc3",2,0,2,3)
  ShowMessage("\\n<Arachnes>Aaah... Their boobs, so soft...")
  0()



EVENT   190
 PAGE   1
  ShowMessageFace("bgolem_fc1",1,0,2,1)
  ShowMessage("\\n<Black Golem Girl>Don't underestimate Grangold's magical engineering!")
  ShowMessageFace("arachnes_fc2",2,0,2,2)
  ShowMessage("\\n<Arachnes>Golems are plain and boring. Get out of my way!")
  0()



EVENT   191
 PAGE   1
  ShowMessageFace("ant_fc1",1,0,2,1)
  ShowMessage("\\n<Ant Girl>I'M SORRY...")
  0()



EVENT   192
 PAGE   1
  ShowMessageFace("",0,0,2,1)
  ShowMessage("\\n<Soldier>How can we stop so many of them...")
  0()



EVENT   193
 PAGE   1
  ShowMessageFace("ant_fc1",1,0,2,1)
  ShowMessage("\\n<Ant Girl>I'M SORRY...")
  0()



EVENT   194
 PAGE   1
  0()
 PAGE   2
  // condition: switch 31 is ON
  0()



EVENT   195
 PAGE   1
  // condition: switch 32 is ON
  0()



EVENT   196
 PAGE   1
  0()
 PAGE   2
  // condition: switch 34 is ON
  0()



EVENT   197
 PAGE   1
  0()
 PAGE   2
  // condition: switch 34 is ON
  0()



EVENT   198
 PAGE   1
  0()
 PAGE   2
  // condition: switch 34 is ON
  0()



EVENT   200
 PAGE   1
  0()



EVENT   201
 PAGE   1
  If(0,4,0)
   ShowMessageFace("alice_fc5",2,0,2,1)
   ShowMessage("\\n<Alice>The road is completely blocked from the fighting. We'll have to find another route!")
   0()
  EndIf()
  If(0,5,0)
   ShowMessageFace("iriasu_fc4",7,0,2,2)
   ShowMessage("\\n<Ilias>The road is completely blocked from the fighting. Let's find another route!")
   0()
  EndIf()
  0()



EVENT   202
 PAGE   1
  0()
 PAGE   2
  // condition: switch 34 is ON
  0()



EVENT   206
 PAGE   1
  0()
 PAGE   2
  // condition: switch 34 is ON
  0()



EVENT   209
 PAGE   1
  0()
 PAGE   2
  // condition: switch 34 is ON
  0()



EVENT   210
 PAGE   1
  0()
 PAGE   2
  // condition: switch 34 is ON
  0()



EVENT   212
 PAGE   1
  0()



EVENT   213
 PAGE   1
  0()



EVENT   214
 PAGE   1
  // condition: switch 35 is ON
  0()



EVENT   215
 PAGE   1
  // condition: switch 36 is ON
  0()



EVENT   216
 PAGE   1
  RunCommonEvent(350)
  0()



EVENT   217
 PAGE   1
  RunCommonEvent(350)
  0()



EVENT   218
 PAGE   1
  RunCommonEvent(350)
  0()



EVENT   219
 PAGE   1
  RunCommonEvent(350)
  0()



EVENT   220
 PAGE   1
  RunCommonEvent(350)
  0()


